Décortiquer l’EuroMillions - 2 Compter
…
Code

```{r}
num_long
eto_long
```

# A tibble: 100 × 3
   numero jour  sorties
    <int> <chr>   <dbl>
 1      1 So_MA       9
 2      1 So_VE       3
 3      2 So_MA       4
 4      2 So_VE      10
 5      3 So_MA       7
 6      3 So_VE       9
 7      4 So_MA       7
 8      4 So_VE       8
 9      5 So_MA       7
10      5 So_VE       8
# ℹ 90 more rows
# A tibble: 24 × 3
   etoile jour  sorties
    <int> <chr>   <dbl>
 1      1 So_MA      10
 2      1 So_VE      13
 3      2 So_MA      16
 4      2 So_VE      15
 5      3 So_MA      16
 6      3 So_VE      17
 7      4 So_MA      15
 8      4 So_VE      13
 9      5 So_MA      13
10      5 So_VE      13
# ℹ 14 more rows
…
