Décortiquer l’EuroMillions - 1 Importer les fichiers
…
1.1.5 Raccourcir les noms des variables

```{r}
euromil <- 
euromil %>% 
  rename(jt = jour_de_tirage,
         dt = date_de_tirage,
         b1 = boule_1, b2 = boule_2, b3 = boule_3,
         b4 = boule_4, b5 = boule_5,
         e1 = etoile_1, e2 = etoile_2)

euromil
```

# A tibble: 812 × 9
   jt       dt         b1    b2    b3    b4    b5    e1    e2   
   <chr>    <chr>      <chr> <chr> <chr> <chr> <chr> <chr> <chr>
 1 VENDREDI 31/12/2021 25    7     43    22    49    7     6    
 2 MARDI    31/12/2019 41    31    48    33    26    4     2    
 3 MARDI    31/10/2023 20    40    5     50    7     10    2    
 4 MARDI    31/10/2017 46    12    43    36    1     3     5    
 5 MARDI    31/08/2021 17    5     32    13    43    2     10   
 6 VENDREDI 31/08/2018 4     42    30    38    31    4     6    
 7 VENDREDI 31/07/2020 30    46    24    21    49    2     5    
 8 MARDI    31/07/2018 25    34    20    42    45    6     11   
 9 VENDREDI 31/05/2024 16    33    4     34    7     8     7    
10 MARDI    31/05/2022 42    13    10    49    3     3     9    
# ℹ 802 more rows
…
